[
{
  "model": "fantasy.position",
  "pk": 1,
  "fields": {
    "day": 1,
    "crew": 1,
    "rank": 1
  }
},
{
  "model": "fantasy.position",
  "pk": 2,
  "fields": {
    "day": 1,
    "crew": 2,
    "rank": 2
  }
},
{
  "model": "fantasy.position",
  "pk": 3,
  "fields": {
    "day": 1,
    "crew": 3,
    "rank": 3
  }
},
{
  "model": "fantasy.position",
  "pk": 4,
  "fields": {
    "day": 1,
    "crew": 4,
    "rank": 4
  }
},
{
  "model": "fantasy.position",
  "pk": 5,
  "fields": {
    "day": 1,
    "crew": 5,
    "rank": 5
  }
},
{
  "model": "fantasy.position",
  "pk": 6,
  "fields": {
    "day": 1,
    "crew": 6,
    "rank": 6
  }
},
{
  "model": "fantasy.position",
  "pk": 7,
  "fields": {
    "day": 1,
    "crew": 7,
    "rank": 7
  }
},
{
  "model": "fantasy.position",
  "pk": 8,
  "fields": {
    "day": 1,
    "crew": 8,
    "rank": 8
  }
},
{
  "model": "fantasy.position",
  "pk": 9,
  "fields": {
    "day": 1,
    "crew": 9,
    "rank": 9
  }
},
{
  "model": "fantasy.position",
  "pk": 10,
  "fields": {
    "day": 1,
    "crew": 10,
    "rank": 10
  }
},
{
  "model": "fantasy.position",
  "pk": 11,
  "fields": {
    "day": 1,
    "crew": 11,
    "rank": 11
  }
},
{
  "model": "fantasy.position",
  "pk": 12,
  "fields": {
    "day": 1,
    "crew": 12,
    "rank": 12
  }
},
{
  "model": "fantasy.position",
  "pk": 13,
  "fields": {
    "day": 1,
    "crew": 13,
    "rank": 13
  }
},
{
  "model": "fantasy.position",
  "pk": 14,
  "fields": {
    "day": 1,
    "crew": 14,
    "rank": 14
  }
},
{
  "model": "fantasy.position",
  "pk": 15,
  "fields": {
    "day": 1,
    "crew": 15,
    "rank": 15
  }
},
{
  "model": "fantasy.position",
  "pk": 16,
  "fields": {
    "day": 1,
    "crew": 16,
    "rank": 16
  }
},
{
  "model": "fantasy.position",
  "pk": 17,
  "fields": {
    "day": 1,
    "crew": 17,
    "rank": 17
  }
},
{
  "model": "fantasy.position",
  "pk": 18,
  "fields": {
    "day": 1,
    "crew": 18,
    "rank": 18
  }
},
{
  "model": "fantasy.position",
  "pk": 19,
  "fields": {
    "day": 1,
    "crew": 19,
    "rank": 19
  }
},
{
  "model": "fantasy.position",
  "pk": 20,
  "fields": {
    "day": 1,
    "crew": 20,
    "rank": 20
  }
},
{
  "model": "fantasy.position",
  "pk": 21,
  "fields": {
    "day": 1,
    "crew": 21,
    "rank": 21
  }
},
{
  "model": "fantasy.position",
  "pk": 22,
  "fields": {
    "day": 1,
    "crew": 22,
    "rank": 22
  }
},
{
  "model": "fantasy.position",
  "pk": 23,
  "fields": {
    "day": 1,
    "crew": 23,
    "rank": 23
  }
},
{
  "model": "fantasy.position",
  "pk": 24,
  "fields": {
    "day": 1,
    "crew": 24,
    "rank": 24
  }
},
{
  "model": "fantasy.position",
  "pk": 25,
  "fields": {
    "day": 1,
    "crew": 25,
    "rank": 25
  }
},
{
  "model": "fantasy.position",
  "pk": 26,
  "fields": {
    "day": 1,
    "crew": 26,
    "rank": 26
  }
},
{
  "model": "fantasy.position",
  "pk": 27,
  "fields": {
    "day": 1,
    "crew": 27,
    "rank": 27
  }
},
{
  "model": "fantasy.position",
  "pk": 28,
  "fields": {
    "day": 1,
    "crew": 28,
    "rank": 28
  }
},
{
  "model": "fantasy.position",
  "pk": 29,
  "fields": {
    "day": 1,
    "crew": 29,
    "rank": 29
  }
},
{
  "model": "fantasy.position",
  "pk": 30,
  "fields": {
    "day": 1,
    "crew": 30,
    "rank": 30
  }
},
{
  "model": "fantasy.position",
  "pk": 31,
  "fields": {
    "day": 1,
    "crew": 31,
    "rank": 31
  }
},
{
  "model": "fantasy.position",
  "pk": 32,
  "fields": {
    "day": 1,
    "crew": 32,
    "rank": 32
  }
},
{
  "model": "fantasy.position",
  "pk": 33,
  "fields": {
    "day": 1,
    "crew": 33,
    "rank": 33
  }
},
{
  "model": "fantasy.position",
  "pk": 34,
  "fields": {
    "day": 1,
    "crew": 34,
    "rank": 34
  }
},
{
  "model": "fantasy.position",
  "pk": 35,
  "fields": {
    "day": 1,
    "crew": 35,
    "rank": 35
  }
},
{
  "model": "fantasy.position",
  "pk": 36,
  "fields": {
    "day": 1,
    "crew": 36,
    "rank": 36
  }
},
{
  "model": "fantasy.position",
  "pk": 37,
  "fields": {
    "day": 1,
    "crew": 37,
    "rank": 37
  }
},
{
  "model": "fantasy.position",
  "pk": 38,
  "fields": {
    "day": 1,
    "crew": 38,
    "rank": 38
  }
},
{
  "model": "fantasy.position",
  "pk": 39,
  "fields": {
    "day": 1,
    "crew": 39,
    "rank": 39
  }
},
{
  "model": "fantasy.position",
  "pk": 40,
  "fields": {
    "day": 1,
    "crew": 40,
    "rank": 40
  }
},
{
  "model": "fantasy.position",
  "pk": 41,
  "fields": {
    "day": 1,
    "crew": 41,
    "rank": 41
  }
},
{
  "model": "fantasy.position",
  "pk": 42,
  "fields": {
    "day": 1,
    "crew": 42,
    "rank": 42
  }
},
{
  "model": "fantasy.position",
  "pk": 43,
  "fields": {
    "day": 1,
    "crew": 43,
    "rank": 43
  }
},
{
  "model": "fantasy.position",
  "pk": 44,
  "fields": {
    "day": 1,
    "crew": 44,
    "rank": 44
  }
},
{
  "model": "fantasy.position",
  "pk": 45,
  "fields": {
    "day": 1,
    "crew": 45,
    "rank": 45
  }
},
{
  "model": "fantasy.position",
  "pk": 46,
  "fields": {
    "day": 1,
    "crew": 46,
    "rank": 46
  }
},
{
  "model": "fantasy.position",
  "pk": 47,
  "fields": {
    "day": 1,
    "crew": 47,
    "rank": 47
  }
},
{
  "model": "fantasy.position",
  "pk": 48,
  "fields": {
    "day": 1,
    "crew": 48,
    "rank": 48
  }
},
{
  "model": "fantasy.position",
  "pk": 49,
  "fields": {
    "day": 1,
    "crew": 49,
    "rank": 49
  }
},
{
  "model": "fantasy.position",
  "pk": 50,
  "fields": {
    "day": 1,
    "crew": 50,
    "rank": 50
  }
},
{
  "model": "fantasy.position",
  "pk": 51,
  "fields": {
    "day": 1,
    "crew": 51,
    "rank": 51
  }
},
{
  "model": "fantasy.position",
  "pk": 52,
  "fields": {
    "day": 1,
    "crew": 52,
    "rank": 52
  }
},
{
  "model": "fantasy.position",
  "pk": 53,
  "fields": {
    "day": 1,
    "crew": 53,
    "rank": 53
  }
},
{
  "model": "fantasy.position",
  "pk": 54,
  "fields": {
    "day": 1,
    "crew": 54,
    "rank": 54
  }
},
{
  "model": "fantasy.position",
  "pk": 55,
  "fields": {
    "day": 1,
    "crew": 55,
    "rank": 55
  }
},
{
  "model": "fantasy.position",
  "pk": 56,
  "fields": {
    "day": 1,
    "crew": 56,
    "rank": 56
  }
},
{
  "model": "fantasy.position",
  "pk": 57,
  "fields": {
    "day": 1,
    "crew": 57,
    "rank": 57
  }
},
{
  "model": "fantasy.position",
  "pk": 58,
  "fields": {
    "day": 1,
    "crew": 58,
    "rank": 58
  }
},
{
  "model": "fantasy.position",
  "pk": 59,
  "fields": {
    "day": 1,
    "crew": 59,
    "rank": 59
  }
},
{
  "model": "fantasy.position",
  "pk": 60,
  "fields": {
    "day": 1,
    "crew": 60,
    "rank": 60
  }
},
{
  "model": "fantasy.position",
  "pk": 61,
  "fields": {
    "day": 1,
    "crew": 61,
    "rank": 61
  }
},
{
  "model": "fantasy.position",
  "pk": 62,
  "fields": {
    "day": 1,
    "crew": 62,
    "rank": 1
  }
},
{
  "model": "fantasy.position",
  "pk": 63,
  "fields": {
    "day": 1,
    "crew": 63,
    "rank": 2
  }
},
{
  "model": "fantasy.position",
  "pk": 64,
  "fields": {
    "day": 1,
    "crew": 64,
    "rank": 3
  }
},
{
  "model": "fantasy.position",
  "pk": 65,
  "fields": {
    "day": 1,
    "crew": 65,
    "rank": 4
  }
},
{
  "model": "fantasy.position",
  "pk": 66,
  "fields": {
    "day": 1,
    "crew": 66,
    "rank": 5
  }
},
{
  "model": "fantasy.position",
  "pk": 67,
  "fields": {
    "day": 1,
    "crew": 67,
    "rank": 6
  }
},
{
  "model": "fantasy.position",
  "pk": 68,
  "fields": {
    "day": 1,
    "crew": 68,
    "rank": 7
  }
},
{
  "model": "fantasy.position",
  "pk": 69,
  "fields": {
    "day": 1,
    "crew": 69,
    "rank": 8
  }
},
{
  "model": "fantasy.position",
  "pk": 70,
  "fields": {
    "day": 1,
    "crew": 70,
    "rank": 9
  }
},
{
  "model": "fantasy.position",
  "pk": 71,
  "fields": {
    "day": 1,
    "crew": 71,
    "rank": 10
  }
},
{
  "model": "fantasy.position",
  "pk": 72,
  "fields": {
    "day": 1,
    "crew": 72,
    "rank": 11
  }
},
{
  "model": "fantasy.position",
  "pk": 73,
  "fields": {
    "day": 1,
    "crew": 73,
    "rank": 12
  }
},
{
  "model": "fantasy.position",
  "pk": 74,
  "fields": {
    "day": 1,
    "crew": 74,
    "rank": 13
  }
},
{
  "model": "fantasy.position",
  "pk": 75,
  "fields": {
    "day": 1,
    "crew": 75,
    "rank": 14
  }
},
{
  "model": "fantasy.position",
  "pk": 76,
  "fields": {
    "day": 1,
    "crew": 76,
    "rank": 15
  }
},
{
  "model": "fantasy.position",
  "pk": 77,
  "fields": {
    "day": 1,
    "crew": 77,
    "rank": 16
  }
},
{
  "model": "fantasy.position",
  "pk": 78,
  "fields": {
    "day": 1,
    "crew": 78,
    "rank": 17
  }
},
{
  "model": "fantasy.position",
  "pk": 79,
  "fields": {
    "day": 1,
    "crew": 79,
    "rank": 18
  }
},
{
  "model": "fantasy.position",
  "pk": 80,
  "fields": {
    "day": 1,
    "crew": 80,
    "rank": 19
  }
},
{
  "model": "fantasy.position",
  "pk": 81,
  "fields": {
    "day": 1,
    "crew": 81,
    "rank": 20
  }
},
{
  "model": "fantasy.position",
  "pk": 82,
  "fields": {
    "day": 1,
    "crew": 82,
    "rank": 21
  }
},
{
  "model": "fantasy.position",
  "pk": 83,
  "fields": {
    "day": 1,
    "crew": 83,
    "rank": 22
  }
},
{
  "model": "fantasy.position",
  "pk": 84,
  "fields": {
    "day": 1,
    "crew": 84,
    "rank": 23
  }
},
{
  "model": "fantasy.position",
  "pk": 85,
  "fields": {
    "day": 1,
    "crew": 85,
    "rank": 24
  }
},
{
  "model": "fantasy.position",
  "pk": 86,
  "fields": {
    "day": 1,
    "crew": 86,
    "rank": 25
  }
},
{
  "model": "fantasy.position",
  "pk": 87,
  "fields": {
    "day": 1,
    "crew": 87,
    "rank": 26
  }
},
{
  "model": "fantasy.position",
  "pk": 88,
  "fields": {
    "day": 1,
    "crew": 88,
    "rank": 27
  }
},
{
  "model": "fantasy.position",
  "pk": 89,
  "fields": {
    "day": 1,
    "crew": 89,
    "rank": 28
  }
},
{
  "model": "fantasy.position",
  "pk": 90,
  "fields": {
    "day": 1,
    "crew": 90,
    "rank": 29
  }
},
{
  "model": "fantasy.position",
  "pk": 91,
  "fields": {
    "day": 1,
    "crew": 91,
    "rank": 30
  }
},
{
  "model": "fantasy.position",
  "pk": 92,
  "fields": {
    "day": 1,
    "crew": 92,
    "rank": 31
  }
},
{
  "model": "fantasy.position",
  "pk": 93,
  "fields": {
    "day": 1,
    "crew": 93,
    "rank": 32
  }
},
{
  "model": "fantasy.position",
  "pk": 94,
  "fields": {
    "day": 1,
    "crew": 94,
    "rank": 33
  }
},
{
  "model": "fantasy.position",
  "pk": 95,
  "fields": {
    "day": 1,
    "crew": 95,
    "rank": 34
  }
},
{
  "model": "fantasy.position",
  "pk": 96,
  "fields": {
    "day": 1,
    "crew": 96,
    "rank": 35
  }
},
{
  "model": "fantasy.position",
  "pk": 97,
  "fields": {
    "day": 1,
    "crew": 97,
    "rank": 36
  }
},
{
  "model": "fantasy.position",
  "pk": 98,
  "fields": {
    "day": 1,
    "crew": 98,
    "rank": 37
  }
},
{
  "model": "fantasy.position",
  "pk": 99,
  "fields": {
    "day": 1,
    "crew": 99,
    "rank": 38
  }
},
{
  "model": "fantasy.position",
  "pk": 100,
  "fields": {
    "day": 1,
    "crew": 100,
    "rank": 39
  }
},
{
  "model": "fantasy.position",
  "pk": 101,
  "fields": {
    "day": 1,
    "crew": 101,
    "rank": 40
  }
},
{
  "model": "fantasy.position",
  "pk": 102,
  "fields": {
    "day": 1,
    "crew": 102,
    "rank": 41
  }
},
{
  "model": "fantasy.position",
  "pk": 103,
  "fields": {
    "day": 1,
    "crew": 103,
    "rank": 42
  }
},
{
  "model": "fantasy.position",
  "pk": 104,
  "fields": {
    "day": 1,
    "crew": 104,
    "rank": 43
  }
},
{
  "model": "fantasy.position",
  "pk": 105,
  "fields": {
    "day": 1,
    "crew": 105,
    "rank": 44
  }
},
{
  "model": "fantasy.position",
  "pk": 106,
  "fields": {
    "day": 1,
    "crew": 106,
    "rank": 45
  }
},
{
  "model": "fantasy.position",
  "pk": 107,
  "fields": {
    "day": 1,
    "crew": 107,
    "rank": 46
  }
},
{
  "model": "fantasy.position",
  "pk": 108,
  "fields": {
    "day": 1,
    "crew": 108,
    "rank": 47
  }
},
{
  "model": "fantasy.position",
  "pk": 109,
  "fields": {
    "day": 1,
    "crew": 109,
    "rank": 48
  }
},
{
  "model": "fantasy.position",
  "pk": 110,
  "fields": {
    "day": 1,
    "crew": 110,
    "rank": 49
  }
},
{
  "model": "fantasy.position",
  "pk": 111,
  "fields": {
    "day": 1,
    "crew": 111,
    "rank": 50
  }
},
{
  "model": "fantasy.position",
  "pk": 112,
  "fields": {
    "day": 1,
    "crew": 112,
    "rank": 51
  }
},
{
  "model": "fantasy.position",
  "pk": 113,
  "fields": {
    "day": 1,
    "crew": 113,
    "rank": 52
  }
},
{
  "model": "fantasy.position",
  "pk": 114,
  "fields": {
    "day": 1,
    "crew": 114,
    "rank": 53
  }
},
{
  "model": "fantasy.position",
  "pk": 115,
  "fields": {
    "day": 1,
    "crew": 115,
    "rank": 54
  }
},
{
  "model": "fantasy.position",
  "pk": 116,
  "fields": {
    "day": 1,
    "crew": 116,
    "rank": 55
  }
},
{
  "model": "fantasy.position",
  "pk": 117,
  "fields": {
    "day": 1,
    "crew": 117,
    "rank": 56
  }
},
{
  "model": "fantasy.position",
  "pk": 118,
  "fields": {
    "day": 1,
    "crew": 118,
    "rank": 57
  }
},
{
  "model": "fantasy.position",
  "pk": 119,
  "fields": {
    "day": 1,
    "crew": 119,
    "rank": 58
  }
},
{
  "model": "fantasy.position",
  "pk": 120,
  "fields": {
    "day": 1,
    "crew": 120,
    "rank": 59
  }
},
{
  "model": "fantasy.position",
  "pk": 121,
  "fields": {
    "day": 1,
    "crew": 121,
    "rank": 60
  }
},
{
  "model": "fantasy.position",
  "pk": 122,
  "fields": {
    "day": 1,
    "crew": 122,
    "rank": 61
  }
},
{
  "model": "fantasy.position",
  "pk": 123,
  "fields": {
    "day": 1,
    "crew": 123,
    "rank": 62
  }
},
{
  "model": "fantasy.position",
  "pk": 124,
  "fields": {
    "day": 1,
    "crew": 124,
    "rank": 63
  }
},
{
  "model": "fantasy.position",
  "pk": 125,
  "fields": {
    "day": 1,
    "crew": 125,
    "rank": 64
  }
},
{
  "model": "fantasy.position",
  "pk": 126,
  "fields": {
    "day": 1,
    "crew": 126,
    "rank": 65
  }
},
{
  "model": "fantasy.position",
  "pk": 127,
  "fields": {
    "day": 1,
    "crew": 127,
    "rank": 66
  }
},
{
  "model": "fantasy.position",
  "pk": 128,
  "fields": {
    "day": 1,
    "crew": 128,
    "rank": 67
  }
},
{
  "model": "fantasy.position",
  "pk": 129,
  "fields": {
    "day": 1,
    "crew": 129,
    "rank": 68
  }
},
{
  "model": "fantasy.position",
  "pk": 130,
  "fields": {
    "day": 1,
    "crew": 130,
    "rank": 69
  }
},
{
  "model": "fantasy.position",
  "pk": 131,
  "fields": {
    "day": 1,
    "crew": 131,
    "rank": 70
  }
},
{
  "model": "fantasy.position",
  "pk": 132,
  "fields": {
    "day": 1,
    "crew": 132,
    "rank": 71
  }
},
{
  "model": "fantasy.position",
  "pk": 133,
  "fields": {
    "day": 1,
    "crew": 133,
    "rank": 72
  }
},
{
  "model": "fantasy.position",
  "pk": 134,
  "fields": {
    "day": 1,
    "crew": 134,
    "rank": 73
  }
}
]
