[
{
  "model": "fantasy.position",
  "pk": 135,
  "fields": {
    "day": 2,
    "crew": 1,
    "rank": 1
  }
},
{
  "model": "fantasy.position",
  "pk": 136,
  "fields": {
    "day": 2,
    "crew": 2,
    "rank": 2
  }
},
{
  "model": "fantasy.position",
  "pk": 137,
  "fields": {
    "day": 2,
    "crew": 3,
    "rank": 3
  }
},
{
  "model": "fantasy.position",
  "pk": 138,
  "fields": {
    "day": 2,
    "crew": 4,
    "rank": 4
  }
},
{
  "model": "fantasy.position",
  "pk": 139,
  "fields": {
    "day": 2,
    "crew": 5,
    "rank": 6
  }
},
{
  "model": "fantasy.position",
  "pk": 140,
  "fields": {
    "day": 2,
    "crew": 6,
    "rank": 5
  }
},
{
  "model": "fantasy.position",
  "pk": 141,
  "fields": {
    "day": 2,
    "crew": 7,
    "rank": 8
  }
},
{
  "model": "fantasy.position",
  "pk": 142,
  "fields": {
    "day": 2,
    "crew": 8,
    "rank": 7
  }
},
{
  "model": "fantasy.position",
  "pk": 143,
  "fields": {
    "day": 2,
    "crew": 9,
    "rank": 10
  }
},
{
  "model": "fantasy.position",
  "pk": 144,
  "fields": {
    "day": 2,
    "crew": 10,
    "rank": 9
  }
},
{
  "model": "fantasy.position",
  "pk": 145,
  "fields": {
    "day": 2,
    "crew": 11,
    "rank": 11
  }
},
{
  "model": "fantasy.position",
  "pk": 146,
  "fields": {
    "day": 2,
    "crew": 12,
    "rank": 13
  }
},
{
  "model": "fantasy.position",
  "pk": 147,
  "fields": {
    "day": 2,
    "crew": 13,
    "rank": 12
  }
},
{
  "model": "fantasy.position",
  "pk": 148,
  "fields": {
    "day": 2,
    "crew": 14,
    "rank": 15
  }
},
{
  "model": "fantasy.position",
  "pk": 149,
  "fields": {
    "day": 2,
    "crew": 15,
    "rank": 14
  }
},
{
  "model": "fantasy.position",
  "pk": 150,
  "fields": {
    "day": 2,
    "crew": 16,
    "rank": 16
  }
},
{
  "model": "fantasy.position",
  "pk": 151,
  "fields": {
    "day": 2,
    "crew": 17,
    "rank": 20
  }
},
{
  "model": "fantasy.position",
  "pk": 152,
  "fields": {
    "day": 2,
    "crew": 18,
    "rank": 17
  }
},
{
  "model": "fantasy.position",
  "pk": 153,
  "fields": {
    "day": 2,
    "crew": 19,
    "rank": 18
  }
},
{
  "model": "fantasy.position",
  "pk": 154,
  "fields": {
    "day": 2,
    "crew": 20,
    "rank": 19
  }
},
{
  "model": "fantasy.position",
  "pk": 155,
  "fields": {
    "day": 2,
    "crew": 21,
    "rank": 23
  }
},
{
  "model": "fantasy.position",
  "pk": 156,
  "fields": {
    "day": 2,
    "crew": 22,
    "rank": 22
  }
},
{
  "model": "fantasy.position",
  "pk": 157,
  "fields": {
    "day": 2,
    "crew": 23,
    "rank": 21
  }
},
{
  "model": "fantasy.position",
  "pk": 158,
  "fields": {
    "day": 2,
    "crew": 24,
    "rank": 25
  }
},
{
  "model": "fantasy.position",
  "pk": 159,
  "fields": {
    "day": 2,
    "crew": 25,
    "rank": 24
  }
},
{
  "model": "fantasy.position",
  "pk": 160,
  "fields": {
    "day": 2,
    "crew": 26,
    "rank": 28
  }
},
{
  "model": "fantasy.position",
  "pk": 161,
  "fields": {
    "day": 2,
    "crew": 27,
    "rank": 26
  }
},
{
  "model": "fantasy.position",
  "pk": 162,
  "fields": {
    "day": 2,
    "crew": 28,
    "rank": 27
  }
},
{
  "model": "fantasy.position",
  "pk": 163,
  "fields": {
    "day": 2,
    "crew": 29,
    "rank": 29
  }
},
{
  "model": "fantasy.position",
  "pk": 164,
  "fields": {
    "day": 2,
    "crew": 30,
    "rank": 33
  }
},
{
  "model": "fantasy.position",
  "pk": 165,
  "fields": {
    "day": 2,
    "crew": 31,
    "rank": 30
  }
},
{
  "model": "fantasy.position",
  "pk": 166,
  "fields": {
    "day": 2,
    "crew": 32,
    "rank": 32
  }
},
{
  "model": "fantasy.position",
  "pk": 167,
  "fields": {
    "day": 2,
    "crew": 33,
    "rank": 31
  }
},
{
  "model": "fantasy.position",
  "pk": 168,
  "fields": {
    "day": 2,
    "crew": 34,
    "rank": 34
  }
},
{
  "model": "fantasy.position",
  "pk": 169,
  "fields": {
    "day": 2,
    "crew": 35,
    "rank": 37
  }
},
{
  "model": "fantasy.position",
  "pk": 170,
  "fields": {
    "day": 2,
    "crew": 36,
    "rank": 35
  }
},
{
  "model": "fantasy.position",
  "pk": 171,
  "fields": {
    "day": 2,
    "crew": 37,
    "rank": 36
  }
},
{
  "model": "fantasy.position",
  "pk": 172,
  "fields": {
    "day": 2,
    "crew": 38,
    "rank": 38
  }
},
{
  "model": "fantasy.position",
  "pk": 173,
  "fields": {
    "day": 2,
    "crew": 39,
    "rank": 39
  }
},
{
  "model": "fantasy.position",
  "pk": 174,
  "fields": {
    "day": 2,
    "crew": 40,
    "rank": 40
  }
},
{
  "model": "fantasy.position",
  "pk": 175,
  "fields": {
    "day": 2,
    "crew": 41,
    "rank": 43
  }
},
{
  "model": "fantasy.position",
  "pk": 176,
  "fields": {
    "day": 2,
    "crew": 42,
    "rank": 41
  }
},
{
  "model": "fantasy.position",
  "pk": 177,
  "fields": {
    "day": 2,
    "crew": 43,
    "rank": 42
  }
},
{
  "model": "fantasy.position",
  "pk": 178,
  "fields": {
    "day": 2,
    "crew": 44,
    "rank": 44
  }
},
{
  "model": "fantasy.position",
  "pk": 179,
  "fields": {
    "day": 2,
    "crew": 45,
    "rank": 49
  }
},
{
  "model": "fantasy.position",
  "pk": 180,
  "fields": {
    "day": 2,
    "crew": 46,
    "rank": 45
  }
},
{
  "model": "fantasy.position",
  "pk": 181,
  "fields": {
    "day": 2,
    "crew": 47,
    "rank": 46
  }
},
{
  "model": "fantasy.position",
  "pk": 182,
  "fields": {
    "day": 2,
    "crew": 48,
    "rank": 47
  }
},
{
  "model": "fantasy.position",
  "pk": 183,
  "fields": {
    "day": 2,
    "crew": 49,
    "rank": 48
  }
},
{
  "model": "fantasy.position",
  "pk": 184,
  "fields": {
    "day": 2,
    "crew": 50,
    "rank": 50
  }
},
{
  "model": "fantasy.position",
  "pk": 185,
  "fields": {
    "day": 2,
    "crew": 51,
    "rank": 51
  }
},
{
  "model": "fantasy.position",
  "pk": 186,
  "fields": {
    "day": 2,
    "crew": 52,
    "rank": 52
  }
},
{
  "model": "fantasy.position",
  "pk": 187,
  "fields": {
    "day": 2,
    "crew": 53,
    "rank": 53
  }
},
{
  "model": "fantasy.position",
  "pk": 188,
  "fields": {
    "day": 2,
    "crew": 54,
    "rank": 55
  }
},
{
  "model": "fantasy.position",
  "pk": 189,
  "fields": {
    "day": 2,
    "crew": 55,
    "rank": 54
  }
},
{
  "model": "fantasy.position",
  "pk": 190,
  "fields": {
    "day": 2,
    "crew": 56,
    "rank": 57
  }
},
{
  "model": "fantasy.position",
  "pk": 191,
  "fields": {
    "day": 2,
    "crew": 57,
    "rank": 56
  }
},
{
  "model": "fantasy.position",
  "pk": 192,
  "fields": {
    "day": 2,
    "crew": 58,
    "rank": 58
  }
},
{
  "model": "fantasy.position",
  "pk": 193,
  "fields": {
    "day": 2,
    "crew": 59,
    "rank": 61
  }
},
{
  "model": "fantasy.position",
  "pk": 194,
  "fields": {
    "day": 2,
    "crew": 60,
    "rank": 59
  }
},
{
  "model": "fantasy.position",
  "pk": 195,
  "fields": {
    "day": 2,
    "crew": 61,
    "rank": 60
  }
},
{
  "model": "fantasy.position",
  "pk": 196,
  "fields": {
    "day": 2,
    "crew": 62,
    "rank": 1
  }
},
{
  "model": "fantasy.position",
  "pk": 197,
  "fields": {
    "day": 2,
    "crew": 63,
    "rank": 2
  }
},
{
  "model": "fantasy.position",
  "pk": 198,
  "fields": {
    "day": 2,
    "crew": 64,
    "rank": 3
  }
},
{
  "model": "fantasy.position",
  "pk": 199,
  "fields": {
    "day": 2,
    "crew": 65,
    "rank": 4
  }
},
{
  "model": "fantasy.position",
  "pk": 200,
  "fields": {
    "day": 2,
    "crew": 66,
    "rank": 5
  }
},
{
  "model": "fantasy.position",
  "pk": 201,
  "fields": {
    "day": 2,
    "crew": 67,
    "rank": 7
  }
},
{
  "model": "fantasy.position",
  "pk": 202,
  "fields": {
    "day": 2,
    "crew": 68,
    "rank": 6
  }
},
{
  "model": "fantasy.position",
  "pk": 203,
  "fields": {
    "day": 2,
    "crew": 69,
    "rank": 13
  }
},
{
  "model": "fantasy.position",
  "pk": 204,
  "fields": {
    "day": 2,
    "crew": 70,
    "rank": 8
  }
},
{
  "model": "fantasy.position",
  "pk": 205,
  "fields": {
    "day": 2,
    "crew": 71,
    "rank": 10
  }
},
{
  "model": "fantasy.position",
  "pk": 206,
  "fields": {
    "day": 2,
    "crew": 72,
    "rank": 9
  }
},
{
  "model": "fantasy.position",
  "pk": 207,
  "fields": {
    "day": 2,
    "crew": 73,
    "rank": 12
  }
},
{
  "model": "fantasy.position",
  "pk": 208,
  "fields": {
    "day": 2,
    "crew": 74,
    "rank": 11
  }
},
{
  "model": "fantasy.position",
  "pk": 209,
  "fields": {
    "day": 2,
    "crew": 75,
    "rank": 14
  }
},
{
  "model": "fantasy.position",
  "pk": 210,
  "fields": {
    "day": 2,
    "crew": 76,
    "rank": 15
  }
},
{
  "model": "fantasy.position",
  "pk": 211,
  "fields": {
    "day": 2,
    "crew": 77,
    "rank": 17
  }
},
{
  "model": "fantasy.position",
  "pk": 212,
  "fields": {
    "day": 2,
    "crew": 78,
    "rank": 16
  }
},
{
  "model": "fantasy.position",
  "pk": 213,
  "fields": {
    "day": 2,
    "crew": 79,
    "rank": 18
  }
},
{
  "model": "fantasy.position",
  "pk": 214,
  "fields": {
    "day": 2,
    "crew": 80,
    "rank": 19
  }
},
{
  "model": "fantasy.position",
  "pk": 215,
  "fields": {
    "day": 2,
    "crew": 81,
    "rank": 22
  }
},
{
  "model": "fantasy.position",
  "pk": 216,
  "fields": {
    "day": 2,
    "crew": 82,
    "rank": 20
  }
},
{
  "model": "fantasy.position",
  "pk": 217,
  "fields": {
    "day": 2,
    "crew": 83,
    "rank": 21
  }
},
{
  "model": "fantasy.position",
  "pk": 218,
  "fields": {
    "day": 2,
    "crew": 84,
    "rank": 25
  }
},
{
  "model": "fantasy.position",
  "pk": 219,
  "fields": {
    "day": 2,
    "crew": 85,
    "rank": 23
  }
},
{
  "model": "fantasy.position",
  "pk": 220,
  "fields": {
    "day": 2,
    "crew": 86,
    "rank": 26
  }
},
{
  "model": "fantasy.position",
  "pk": 221,
  "fields": {
    "day": 2,
    "crew": 87,
    "rank": 24
  }
},
{
  "model": "fantasy.position",
  "pk": 222,
  "fields": {
    "day": 2,
    "crew": 88,
    "rank": 27
  }
},
{
  "model": "fantasy.position",
  "pk": 223,
  "fields": {
    "day": 2,
    "crew": 89,
    "rank": 28
  }
},
{
  "model": "fantasy.position",
  "pk": 224,
  "fields": {
    "day": 2,
    "crew": 90,
    "rank": 29
  }
},
{
  "model": "fantasy.position",
  "pk": 225,
  "fields": {
    "day": 2,
    "crew": 91,
    "rank": 33
  }
},
{
  "model": "fantasy.position",
  "pk": 226,
  "fields": {
    "day": 2,
    "crew": 92,
    "rank": 30
  }
},
{
  "model": "fantasy.position",
  "pk": 227,
  "fields": {
    "day": 2,
    "crew": 93,
    "rank": 31
  }
},
{
  "model": "fantasy.position",
  "pk": 228,
  "fields": {
    "day": 2,
    "crew": 94,
    "rank": 32
  }
},
{
  "model": "fantasy.position",
  "pk": 229,
  "fields": {
    "day": 2,
    "crew": 95,
    "rank": 35
  }
},
{
  "model": "fantasy.position",
  "pk": 230,
  "fields": {
    "day": 2,
    "crew": 96,
    "rank": 34
  }
},
{
  "model": "fantasy.position",
  "pk": 231,
  "fields": {
    "day": 2,
    "crew": 97,
    "rank": 37
  }
},
{
  "model": "fantasy.position",
  "pk": 232,
  "fields": {
    "day": 2,
    "crew": 98,
    "rank": 36
  }
},
{
  "model": "fantasy.position",
  "pk": 233,
  "fields": {
    "day": 2,
    "crew": 99,
    "rank": 38
  }
},
{
  "model": "fantasy.position",
  "pk": 234,
  "fields": {
    "day": 2,
    "crew": 100,
    "rank": 49
  }
},
{
  "model": "fantasy.position",
  "pk": 235,
  "fields": {
    "day": 2,
    "crew": 101,
    "rank": 39
  }
},
{
  "model": "fantasy.position",
  "pk": 236,
  "fields": {
    "day": 2,
    "crew": 102,
    "rank": 41
  }
},
{
  "model": "fantasy.position",
  "pk": 237,
  "fields": {
    "day": 2,
    "crew": 103,
    "rank": 40
  }
},
{
  "model": "fantasy.position",
  "pk": 238,
  "fields": {
    "day": 2,
    "crew": 104,
    "rank": 42
  }
},
{
  "model": "fantasy.position",
  "pk": 239,
  "fields": {
    "day": 2,
    "crew": 105,
    "rank": 43
  }
},
{
  "model": "fantasy.position",
  "pk": 240,
  "fields": {
    "day": 2,
    "crew": 106,
    "rank": 44
  }
},
{
  "model": "fantasy.position",
  "pk": 241,
  "fields": {
    "day": 2,
    "crew": 107,
    "rank": 47
  }
},
{
  "model": "fantasy.position",
  "pk": 242,
  "fields": {
    "day": 2,
    "crew": 108,
    "rank": 46
  }
},
{
  "model": "fantasy.position",
  "pk": 243,
  "fields": {
    "day": 2,
    "crew": 109,
    "rank": 45
  }
},
{
  "model": "fantasy.position",
  "pk": 244,
  "fields": {
    "day": 2,
    "crew": 110,
    "rank": 61
  }
},
{
  "model": "fantasy.position",
  "pk": 245,
  "fields": {
    "day": 2,
    "crew": 111,
    "rank": 48
  }
},
{
  "model": "fantasy.position",
  "pk": 246,
  "fields": {
    "day": 2,
    "crew": 112,
    "rank": 53
  }
},
{
  "model": "fantasy.position",
  "pk": 247,
  "fields": {
    "day": 2,
    "crew": 113,
    "rank": 50
  }
},
{
  "model": "fantasy.position",
  "pk": 248,
  "fields": {
    "day": 2,
    "crew": 114,
    "rank": 52
  }
},
{
  "model": "fantasy.position",
  "pk": 249,
  "fields": {
    "day": 2,
    "crew": 115,
    "rank": 51
  }
},
{
  "model": "fantasy.position",
  "pk": 250,
  "fields": {
    "day": 2,
    "crew": 116,
    "rank": 55
  }
},
{
  "model": "fantasy.position",
  "pk": 251,
  "fields": {
    "day": 2,
    "crew": 117,
    "rank": 54
  }
},
{
  "model": "fantasy.position",
  "pk": 252,
  "fields": {
    "day": 2,
    "crew": 118,
    "rank": 56
  }
},
{
  "model": "fantasy.position",
  "pk": 253,
  "fields": {
    "day": 2,
    "crew": 119,
    "rank": 57
  }
},
{
  "model": "fantasy.position",
  "pk": 254,
  "fields": {
    "day": 2,
    "crew": 120,
    "rank": 60
  }
},
{
  "model": "fantasy.position",
  "pk": 255,
  "fields": {
    "day": 2,
    "crew": 121,
    "rank": 58
  }
},
{
  "model": "fantasy.position",
  "pk": 256,
  "fields": {
    "day": 2,
    "crew": 122,
    "rank": 73
  }
},
{
  "model": "fantasy.position",
  "pk": 257,
  "fields": {
    "day": 2,
    "crew": 123,
    "rank": 59
  }
},
{
  "model": "fantasy.position",
  "pk": 258,
  "fields": {
    "day": 2,
    "crew": 124,
    "rank": 62
  }
},
{
  "model": "fantasy.position",
  "pk": 259,
  "fields": {
    "day": 2,
    "crew": 125,
    "rank": 63
  }
},
{
  "model": "fantasy.position",
  "pk": 260,
  "fields": {
    "day": 2,
    "crew": 126,
    "rank": 65
  }
},
{
  "model": "fantasy.position",
  "pk": 261,
  "fields": {
    "day": 2,
    "crew": 127,
    "rank": 64
  }
},
{
  "model": "fantasy.position",
  "pk": 262,
  "fields": {
    "day": 2,
    "crew": 128,
    "rank": 66
  }
},
{
  "model": "fantasy.position",
  "pk": 263,
  "fields": {
    "day": 2,
    "crew": 129,
    "rank": 68
  }
},
{
  "model": "fantasy.position",
  "pk": 264,
  "fields": {
    "day": 2,
    "crew": 130,
    "rank": 67
  }
},
{
  "model": "fantasy.position",
  "pk": 265,
  "fields": {
    "day": 2,
    "crew": 131,
    "rank": 69
  }
},
{
  "model": "fantasy.position",
  "pk": 266,
  "fields": {
    "day": 2,
    "crew": 132,
    "rank": 71
  }
},
{
  "model": "fantasy.position",
  "pk": 267,
  "fields": {
    "day": 2,
    "crew": 133,
    "rank": 70
  }
},
{
  "model": "fantasy.position",
  "pk": 268,
  "fields": {
    "day": 2,
    "crew": 134,
    "rank": 72
  }
}
]
