[
{
  "model": "fantasy.event",
  "pk": 1,
  "fields": {
    "series": "D",
    "year": "2019",
    "tag": "demogame",
    "mens_division_sizes": [12, 12, 12, 12, 12, 13],
    "womens_division_sizes": [12, 12, 12, 12, 13],
    "initial_market_open": "2020-02-23T20:00:00Z"
  }
}
]
