[
  {
    "gender": "M",
    "number": 6,
    "race_time": "13:00",
    "size": 6,
    "crews": [
      "down-m5",
      "caiu-m4",
      "cocc-m4",
      "darw-m3",
      "chur-m4",
      "magc-m6"
    ],
    "finalised": true
  },
  {
    "gender": "W",
    "number": 5,
    "race_time": "13:04",
    "size": 9,
    "crews": [
      "darw-w3",
      "chur-w2",
      "home-w3",
      "fatt-w2",
      "robi-w2",
      "down-w3",
      "fitz-w3",
      "girt-w2",
      "jesc-w4"
    ],
    "finalised": true
  },
  {
    "gender": "M",
    "number": 5,
    "race_time": "13:45",
    "size": 17,
    "crews": [
      "chrc-m3",
      "magc-m3",
      "magc-m4",
      "clar-m4",
      "quec-m4",
      "emma-m4",
      "fitz-m3",
      "jesc-m4",
      "quec-m5",
      "jesc-m5",
      "pemc-m4",
      "cocc-m3",
      "selw-m3",
      "pete-m3",
      "down-m4",
      "trih-m4",
      "magc-m5"
    ],
    "finalised": true
  },
  {
    "gender": "W",
    "number": 4,
    "race_time": "14:30",
    "size": 17,
    "crews": [
      "quec-w3",
      "clar-w3",
      "caiu-w3",
      "king-w2",
      "angl-w1",
      "scac-w3",
      "fitz-w2",
      "sidn-w2",
      "ladc-w3",
      "magc-w2",
      "trih-w3",
      "sedc-w2",
      "clar-w4",
      "caiu-w4",
      "cocc-w2",
      "emma-w4",
      "pemc-w4"
    ],
    "finalised": true
  },
  {
    "gender": "M",
    "number": 4,
    "race_time": "15:15",
    "size": 17,
    "crews": [
      "caiu-m3",
      "hugh-m2",
      "wolc-m2",
      "clar-m3",
      "cocc-m2",
      "fatt-m3",
      "king-m2",
      "sidn-m2",
      "trih-m3",
      "darw-m2",
      "chur-m3",
      "angl-m1",
      "down-m3",
      "girt-m2",
      "sedc-m2",
      "home-m2",
      "scac-m3"
    ],
    "finalised": true
  },
  {
    "gender": "W",
    "number": 3,
    "race_time": "16:00",
    "size": 17,
    "crews": [
      "quec-w2",
      "ladc-w2",
      "trih-w2",
      "clar-w2",
      "sedc-w1",
      "emma-w3",
      "hugh-w1",
      "scac-w2",
      "newn-w3",
      "home-w2",
      "murr-w2",
      "jesc-w3",
      "pemc-w3",
      "darw-w2",
      "clah-w1",
      "lucy-w2",
      "chrc-w2"
    ],
    "finalised": true
  },
  {
    "gender": "M",
    "number": 3,
    "race_time": "16:45",
    "size": 17,
    "crews": [
      "clar-m2",
      "robi-m2",
      "magc-m2",
      "quec-m2",
      "scac-m2",
      "chrc-m2",
      "jesc-m3",
      "chur-m2",
      "trih-m2",
      "emma-m3",
      "ladc-m3",
      "pete-m2",
      "clah-m1",
      "quec-m3",
      "selw-m2",
      "fitz-m2",
      "pemc-m3"
    ],
    "finalised": true
  },
  {
    "gender": "W",
    "number": 2,
    "race_time": "17:30",
    "size": 17,
    "crews": [
      "king-w1",
      "pete-w1",
      "darw-w1",
      "magc-w1",
      "newn-w2",
      "emma-w2",
      "jesc-w2",
      "murr-w1",
      "lucy-w1",
      "wolc-w1",
      "sidn-w1",
      "selw-w1",
      "down-w2",
      "robi-w1",
      "cocc-w1",
      "caiu-w2",
      "pemc-w2"
    ],
    "finalised": true
  },
  {
    "gender": "M",
    "number": 2,
    "race_time": "18:15",
    "size": 17,
    "crews": [
      "wolc-m1",
      "hugh-m1",
      "chur-m1",
      "scac-m1",
      "girt-m1",
      "caiu-m2",
      "home-m1",
      "fitz-m1",
      "pemc-m2",
      "sedc-m1",
      "cocc-m1",
      "emma-m2",
      "sidn-m1",
      "down-m2",
      "jesc-m2",
      "darw-m1",
      "fatt-m2"
    ],
    "finalised": true
  },
  {
    "gender": "W",
    "number": 1,
    "race_time": "19:00",
    "size": 17,
    "crews": [
      "newn-w1",
      "jesc-w1",
      "emma-w1",
      "caiu-w1",
      "ladc-w1",
      "down-w1",
      "pemc-w1",
      "chur-w1",
      "fatt-w1",
      "clar-w1",
      "fitz-w1",
      "girt-w1",
      "chrc-w1",
      "quec-w1",
      "scac-w1",
      "trih-w1",
      "home-w1"
    ],
    "finalised": true
  },
  {
    "gender": "M",
    "number": 1,
    "race_time": "19:45",
    "size": 17,
    "crews": [
      "caiu-m1",
      "magc-m1",
      "ladc-m1",
      "down-m1",
      "emma-m1",
      "pemc-m1",
      "pete-m1", 
      "clar-m1",
      "fatt-m1",
      "king-m1",
      "robi-m1",
      "jesc-m1",
      "ladc-m2",
      "quec-m1",
      "chrc-m1",
      "trih-m1",
      "selw-m1"
    ],
    "finalised": true
  }
]