[
  {
    "gender": "M",
    "number": 6,
    "race_time": "12:00",
    "size": 13,
    "crews": [
      "hert-m2",
      "sjoh-m2",
      "univ-m3",
      "chri-m4",
      "spet-m2",
      "chri-m3",
      "newc-m3",
      "magd-m3",
      "spet-m3",
      "orie-m3",
      "grte-m2",
      "wolf-m4",
      "sedm-m4"
    ],
    "finalised": true
  },
  {
    "gender": "W",
    "number": 5,
    "race_time": "12:30",
    "size": 13,
    "crews": [
      "pemb-w2",
      "sedm-w2",
      "magd-w2",
      "chri-w3",
      "wolf-w4",
      "osle-w2",
      "bras-w2",
      "sant-w2",
      "mert-w2",
      "wolf-w5",
      "newc-w3",
      "grte-w2",
      "kebl-w2"
    ],
    "finalised": true
  },
  {
    "gender": "M",
    "number": 5,
    "race_time": "13:00",
    "size": 12,
    "crews": [
      "linc-m2",
      "bras-m2",
      "rege-m1",
      "magd-m2",
      "shug-m2",
      "lina-m2",
      "sedm-m3",
      "wolf-m3",
      "exet-m2",
      "quee-m2",
      "wadh-m3",
      "trin-m3"
    ],
    "finalised": true
  },
  {
    "gender": "W",
    "number": 4,
    "race_time": "13:30",
    "size": 12,
    "crews": [
      "quee-w1",
      "some-w2",
      "orie-w2",
      "rege-w1",
      "sjoh-w2",
      "chri-w2",
      "mans-w2",
      "lina-w2",
      "wadh-w2",
      "worc-w2",
      "osle-w1",
      "linc-w2"
    ],
    "finalised": true
  },
  {
    "gender": "M",
    "number": 4,
    "race_time": "14:00",
    "size": 12,
    "crews": [
      "wadh-m2",
      "grte-m1",
      "sedm-m2",
      "trin-m2",
      "shil-m1",
      "kebl-m2",
      "jesu-m2",
      "newc-m2",
      "sben-m1",
      "mert-m2",
      "univ-m2",
      "ball-m2"
    ],
    "finalised": true
  },
  {
    "gender": "W",
    "number": 3,
    "race_time": "14:30",
    "size": 12,
    "crews": [
      "lina-w1",
      "corp-w1",
      "spet-w1",
      "shil-w1",
      "shug-w1",
      "mert-w1",
      "sant-w1",
      "exet-w1",
      "worc-w1",
      "newc-w2",
      "wolf-w3",
      "univ-w2"
    ],
    "finalised": true
  },
  {
    "gender": "M",
    "number": 3,
    "race_time": "15:00",
    "size": 12,
    "crews": [
      "bras-m1",
      "some-m1",
      "lina-m1",
      "spet-m1",
      "worc-m1",
      "chri-m2",
      "pemb-m2",
      "wolf-m2",
      "sant-m1",
      "orie-m2",
      "scat-m2",
      "sann-m1"
    ],
    "finalised": true
  },
  {
    "gender": "W",
    "number": 2,
    "race_time": "15:30",
    "size": 12,
    "crews": [
      "jesu-w1",
      "magd-w1",
      "sann-w1",
      "lady-w1",
      "bras-w1",
      "linc-w1",
      "some-w1",
      "scat-w1",
      "sedm-w1",
      "wolf-w2",
      "sjoh-w1",
      "mans-w1"
    ],
    "finalised": true
  },
  {
    "gender": "M",
    "number": 2,
    "race_time": "16:00",
    "size": 12,
    "crews": [
      "mert-m1",
      "quee-m1",
      "lady-m1",
      "newc-m1",
      "jesu-m1",
      "sjoh-m1",
      "hert-m1",
      "mans-m1",
      "shug-m1",
      "exet-m1",
      "corp-m1",
      "linc-m1"
    ],
    "finalised": true
  },
  {
    "gender": "W",
    "number": 1,
    "race_time": "16:30",
    "size": 12,
    "crews": [
      "wolf-w1",
      "pemb-w1",
      "univ-w1",
      "orie-w1",
      "chri-w1",
      "wadh-w1",
      "hert-w1",
      "kebl-w1",
      "trin-w1",
      "newc-w1",
      "ball-w1",
      "grte-w1"
    ],
    "finalised": true
  },
  {
    "gender": "M",
    "number": 1,
    "race_time": "17:00",
    "size": 12,
    "crews": [
      "orie-m1", 
      "scat-m1",
      "chri-m1",
      "pemb-m1",
      "ball-m1",
      "wolf-m1",
      "sedm-m1",
      "kebl-m1",
      "wadh-m1",
      "trin-m1",
      "univ-m1",
      "magd-m1"
    ],
    "finalised": true
  }
]