{
  "orie-m1": 1, 
  "pemb-m1": 2,
  "scat-m1": 3,
  "chri-m1": 4,
  "sedm-m1": 5,
  "ball-m1": 6,
  "wolf-m1": 7,
  "kebl-m1": 8,
  "wadh-m1": 9,
  "trin-m1": 10,
  "magd-m1": 11,
  "univ-m1": 12,
  "mert-m1": 13,
  "quee-m1": 14,
  "sjoh-m1": 15,
  "lady-m1": 16,
  "newc-m1": 17,
  "jesu-m1": 18,
  "hert-m1": 19,
  "mans-m1": 20,
  "corp-m1": 21,
  "shug-m1": 22,
  "exet-m1": 23,
  "bras-m1": 24,
  "linc-m1": 25,
  "some-m1": 26,
  "lina-m1": 27,
  "spet-m1": 28,
  "worc-m1": 29,
  "pemb-m2": 30,
  "chri-m2": 31,
  "sann-m1": 32,
  "sant-m1": 33,
  "wolf-m2": 34,
  "orie-m2": 35,
  "scat-m2": 36,
  "wadh-m2": 37,
  "sedm-m2": 38,
  "grte-m1": 39,
  "trin-m2": 40,
  "jesu-m2": 41,
  "shil-m1": 42,
  "kebl-m2": 43,
  "sben-m1": 44,
  "newc-m2": 45,
  "mert-m2": 46,
  "linc-m2": 47,
  "univ-m2": 48,
  "bras-m2": 49,
  "ball-m2": 50,
  "rege-m1": 51,
  "magd-m2": 52,
  "shug-m2": 53,
  "sedm-m3": 54,
  "lina-m2": 55,
  "wadh-m3": 56,
  "wolf-m3": 57,
  "exet-m2": 58,
  "quee-m2": 59,
  "hert-m2": 60,
  "sjoh-m2": 61,
  "trin-m3": 62,
  "chri-m3": 63,
  "univ-m3": 64,
  "chri-m4": 65,
  "spet-m2": 66,
  "newc-m3": 67,
  "spet-m3": 68,
  "magd-m3": 69,
  "wolf-m4": 70,
  "orie-m3": 71,
  "grte-m2": 72,
  "sedm-m4": 73,
  "wolf-w1": 1,
  "pemb-w1": 2,
  "orie-w1": 3,
  "univ-w1": 4,
  "chri-w1": 5,
  "hert-w1": 6,
  "wadh-w1": 7,
  "kebl-w1": 8,
  "newc-w1": 9,
  "trin-w1": 10,
  "jesu-w1": 11,
  "ball-w1": 12,
  "grte-w1": 13,
  "sann-w1": 14,
  "magd-w1": 15,
  "some-w1": 16,
  "lady-w1": 17,
  "linc-w1": 18,
  "bras-w1": 19,
  "sjoh-w1": 20,
  "scat-w1": 21,
  "sedm-w1": 22,
  "wolf-w2": 23,
  "mans-w1": 24,
  "lina-w1": 25,
  "spet-w1": 26,
  "corp-w1": 27,
  "shil-w1": 28,
  "mert-w1": 29,
  "shug-w1": 30,
  "quee-w1": 31,
  "sant-w1": 32,
  "exet-w1": 33,
  "worc-w1": 34,
  "newc-w2": 35,
  "wolf-w3": 36,
  "some-w2": 37,
  "univ-w2": 38,
  "rege-w1": 39,
  "orie-w2": 40,
  "sjoh-w2": 41,
  "wadh-w2": 42,
  "mans-w2": 43,
  "chri-w2": 44,
  "lina-w2": 45,
  "pemb-w2": 46,
  "worc-w2": 47,
  "osle-w1": 48,
  "linc-w2": 49,
  "magd-w2": 50,
  "sedm-w2": 51,
  "chri-w3": 52,
  "wolf-w4": 53,
  "osle-w2": 54,
  "bras-w2": 55,
  "sant-w2": 56,
  "wolf-w5": 57,
  "mert-w2": 58,
  "newc-w3": 59,
  "grte-w2": 60,
  "kebl-w2": 61
}